…
Read in Cost & Feasibility table

``` r
costfeas <- read_csv("sample_CostFeas.csv") # sample file created by above code

print(costfeas)
```

    ## # A tibble: 23 x 3
    ##    Strategy       Cost Feasibility
    ##    <chr>         <dbl>       <dbl>
    ##  1 Baseline         0        1    
    ##  2 S1        12333453.       0.770
    ##  3 S2        29407613.       0.644
    ##  4 S3       206712946.       0.944
    ##  5 S4        87446833.       0.905
    ##  6 S5       188523071.       0.643
    ##  7 S6        32575158.       0.651
    ##  8 S7        54764679.       0.703
    ##  9 S8         3844216.       0.817
    ## 10 S9         9047188.       0.621
    ## # ... with 13 more rows
…
